…
Bei Excel weiß man nur nicht immer so recht, was *Markierung erweitern* bedeutet und ob die Sortierung auch geklappt hat. Das gleiche funktioniert durch die `arrange` Funktion folgendermaßen:

```R
human_resources %>% 
  arrange(age)
```

```
# A tibble: 1,470 x 17
      id   age department distance_from_h~ education employee_count gender job_role job_satisfaction
   <dbl> <dbl> <chr>                 <dbl> <chr>              <dbl> <chr>  <chr>    <chr>           
 1   297    18 Research ~                3 Bachelor               1 Male   Laborat~ High            
 2   302    18 Sales                    10 Bachelor               1 Female Sales R~ High            
 3   458    18 Sales                     5 Bachelor               1 Male   Sales R~ Medium          
 4   728    18 Research ~                5 College                1 Male   Researc~ Very High       
 5   829    18 Research ~                8 Below Co~              1 Male   Laborat~ High            
 6   973    18 Research ~                1 Bachelor               1 Female Laborat~ Very High       
 7  1154    18 Sales                     3 College                1 Female Sales R~ Very High       
 8  1312    18 Research ~               14 Bachelor               1 Female Researc~ High            
 9   128    19 Sales                    22 Below Co~              1 Male   Sales R~ High            
10   150    19 Research ~                3 Below Co~              1 Female Laborat~ Medium          
# ... with 1,460 more rows, and 8 more variables: marital_status <chr>, monthly_income <dbl>,
#   num_companies_worked <dbl>, performance_rating <chr>, total_working_years <dbl>, work_life_balance <chr>,
#   years_at_company <dbl>, years_since_last_promotion <dbl>
```

In diesem Fall sind die Werte von klein nach groß angeordnet. Wir können dies umdrehen, indem wir den Variablennamen in die Funktion `desc` packen:

```R
human_resources %>% 
  arrange(desc(age))
```

```
# A tibble: 1,470 x 17
      id   age department distance_from_h~ education employee_count gender job_role job_satisfaction
   <dbl> <dbl> <chr>                 <dbl> <chr>              <dbl> <chr>  <chr>    <chr>           
 1   412    60 Research ~                7 Bachelor               1 Female Manager  Low             
 2   428    60 Sales                    28 Bachelor               1 Female Sales E~ Low             
 3   537    60 Sales                    16 Master                 1 Male   Sales E~ Low             
 4   880    60 Sales                     7 Master                 1 Male   Sales E~ Very High       
 5  1210    60 Research ~                1 Master                 1 Male   Healthc~ Very High       
 6     7    59 Research ~                3 Bachelor               1 Female Laborat~ Low             
 7    64    59 Sales                    25 Bachelor               1 Female Sales E~ Low             
 8    71    59 Sales                     1 Below Co~              1 Female Sales E~ High            
 9   106    59 Human Res~                2 Master                 1 Female Manager  Very High       
10   226    59 Research ~                3 Bachelor               1 Male   Researc~ Very High       
# ... with 1,460 more rows, and 8 more variables: marital_status <chr>, monthly_income <dbl>,
#   num_companies_worked <dbl>, performance_rating <chr>, total_working_years <dbl>, work_life_balance <chr>,
#   years_at_company <dbl>, years_since_last_promotion <dbl>
```

Nun siehst du, dass die Variable `age` von groß nach klein geordnet ist. Wir können auch mehrere Variablen sortieren:


```R
human_resources %>% 
  arrange(age, distance_from_home)
```

```
# A tibble: 1,470 x 17
      id   age department distance_from_h~ education employee_count gender job_role job_satisfaction
   <dbl> <dbl> <chr>                 <dbl> <chr>              <dbl> <chr>  <chr>    <chr>           
 1   973    18 Research ~                1 Bachelor               1 Female Laborat~ Very High       
 2   297    18 Research ~                3 Bachelor               1 Male   Laborat~ High            
 3  1154    18 Sales                     3 College                1 Female Sales R~ Very High       
 4   458    18 Sales                     5 Bachelor               1 Male   Sales R~ Medium          
 5   728    18 Research ~                5 College                1 Male   Researc~ Very High       
 6   829    18 Research ~                8 Below Co~              1 Male   Laborat~ High            
 7   302    18 Sales                    10 Bachelor               1 Female Sales R~ High            
 8  1312    18 Research ~               14 Bachelor               1 Female Researc~ High            
 9   172    19 Sales                     1 Below Co~              1 Female Sales R~ Low             
10   178    19 Research ~                2 Bachelor               1 Male   Laborat~ Very High       
# ... with 1,460 more rows, and 8 more variables: marital_status <chr>, monthly_income <dbl>,
#   num_companies_worked <dbl>, performance_rating <chr>, total_working_years <dbl>, work_life_balance <chr>,
#   years_at_company <dbl>, years_since_last_promotion <dbl>
```
Du siehst nun, dass innerhalb eines Alters auch die Variable `distance_from_home` von klein nach groß angeordnet wurde.

### select

Viele Datensätze haben viele Variablen. Manchmal möchten wir den Überblick behalten und uns nur ein paar wenige Variablen ansehen. Hierfür benutzen wir die [select Funktion](https://dplyr.tidyverse.org/reference/select.html).

Selektieren wir beispielsweise aus unserem Datensatz nur die Variblen `id` und `age`:

```R
human_resources %>% 
  select(id, age)
```

```
# A tibble: 1,470 x 2
      id   age
   <dbl> <dbl>
 1     1    41
 2     2    49
 3     3    37
 4     4    33
 5     5    27
 6     6    32
 7     7    59
 8     8    30
 9     9    38
10    10    36
# ... with 1,460 more rows
```

Wir können ebenso manche Variablen aus einem Datensatz entfernen, indem wir ein `-` vor die Variable setzen:

```R
human_resources %>% 
  select(id, age, gender) %>%
  select(-gender)
```

```
# A tibble: 1,470 x 2
      id   age
   <dbl> <dbl>
 1 human_resources %>% 
  filter(gender == "Male") %>% 
  select(id, gender)    1    41
 2     2    49
 3     3    37
 4     4    33
 5     5    27
 6     6    32
 7     7    59
 8     8    30
 9     9    38
10    10    36
# ... with 1,460 more rows
```

Hierdurch wird der gleiche Output generiert. Der Unterschied zum vorherigen Beispiel besteht darin, dass wir zunächst drei Variablen selektieren und danach die dritte Variable wieder aus dem Datensatz entfernen. 

Wir können ebenso mehrere Variablenen, die nebeneinander liegen verbinden, indem wir die erste Variable und die letzte Variable angeben und dazwischen ein `:` setzen:

```R
human_resources %>% 
  select(id:education)
```

```
# A tibble: 1,470 x 5
      id   age department             distance_from_home education    
   <dbl> <dbl> <chr>                               <dbl> <chr>        
 1     1    41 Sales                                   1 College      
 2     2    49 Research & Development                  8 Below College
 3     3    37 Research & Development                  2 College      
 4     4    33 Research & Development                  3 Master       
 5     5    27 Research & Development                  2 Below College
 6     6    32 Research & Development                  2 College      
 7     7    59 Research & Development                  3 Bachelor     
 8     8    30 Research & Development                 24 Below College
 9     9    38 Research & Development                 23 Bachelor     
10    10    36 Research & Development                 27 Bachelor     
# ... with 1,460 more rows
```
…
### filter

Mit [filter](https://dplyr.tidyverse.org/reference/filter.html) können wir einzelne Reihen filtern. Beispielsweise können wir mit `filter` einen Datensatz um alle Personen filtern, die männlich sind:

```R
human_resources %>% 
  filter(gender == "Male") %>% 
  select(id, gender)
```

```
# A tibble: 882 x 2
      id gender
   <dbl> <chr> 
 1     2 Male  
 2     3 Male  
 3     5 Male  
 4     6 Male  
 5     8 Male  
 6     9 Male  
 7    10 Male  
 8    11 Male  
 9    13 Male  
10    14 Male  
# ... with 872 more rows
```

> Wenn du nach exakten Werte filterst wie beipsielsweise das Geschlecht, musst du zwei `==` verwenden.

Oder wir filtern den Datensatz um alle Personen, die mindestens 28 Jahre alt sind:

```R
human_resources %>% 
  filter(age > 28) %>% 
  select(id, age)
```

```
# A tibble: 1,212 x 2
      id   age
   <dbl> <dbl>
 1     1    41
 2     2    49
 3     3    37
 4     4    33
 5     6    32
 6     7    59
 7     8    30
 8     9    38
 9    10    36
10    11    35
# ... with 1,202 more rows
```
…
### mutate

Mit [mutate](https://dplyr.tidyverse.org/reference/mutate.html) erstellen wir neue Variablen in einem Datensatz:

```R
human_resources %>% 
  mutate(
    yearly_income = monthly_income * 12
  ) %>% 
  select(id, monthly_income, yearly_income)
```


```
# A tibble: 1,470 x 3
      id monthly_income yearly_income
   <dbl>          <dbl>         <dbl>
 1     1           5993         71916
 2     2           5130         61560
 3     3           2090         25080
 4     4           2909         34908
 5     5           3468         41616
 6     6           3068         36816
 7     7           2670         32040
 8     8           2693         32316
 9     9           9526        114312
10    10           5237         62844
# ... with 1,460 more rows
```

Zunächst muss der Name der neuen Variable benannt werden (`yearly_income`). Anschließend folgt ein `=`. Hinter dem `=` kann die neue Variable berechnet werden. Möchte man mehrere neue Variablen einfügen, kann man die Befehle mit einem Komma trennen:

```R
human_resources %>% 
  mutate(
    yearly_income        = monthly_income * 12,
    salary_above_average = yearly_income > mean(yearly_income)
  ) %>% 
  select(id, monthly_income, yearly_income,
         salary_above_average)
```

```
# A tibble: 1,470 x 4
      id monthly_income yearly_income salary_above_average
   <dbl>          <dbl>         <dbl> <lgl>               
 1     1           5993         71916 FALSE               
 2     2           5130         61560 FALSE               
 3     3           2090         25080 FALSE               
 4     4           2909         34908 FALSE               
 5     5           3468         41616 FALSE               
 6     6           3068         36816 FALSE               
 7     7           2670         32040 FALSE               
 8     8           2693         32316 FALSE               
 9     9           9526        114312 TRUE                
10    10           5237         62844 FALSE               
# ... with 1,460 more rows
```
…
