…
Im nächsten Schritt möchten wir die quadrierten Abweichungen der tatsächlichen Werte und den geschätzen Werten beider Modelle berechnen:

```
(errors <- intelligence %>% 
  mutate(
    compact       = mean(intelligence_pre),
    augmented     = predict(model, newdata = .),
    res_compact   = (compact - intelligence_pre)^2,
    res_augmented = (augmented - intelligence_pre)^2
  ))
``` 

```
# A tibble: 78 x 11
      id gender   age books_per_year intelligence_post group intelligence_pre compact augmented res_compact res_augmented
   <dbl> <chr>  <dbl>          <dbl>             <dbl> <dbl>            <dbl>   <dbl>     <dbl>       <dbl>         <dbl>
 1    25 male      41             10              82.7     2             82.7    94.7      96.0       143.          175. 
 2    26 male      32             10             142.      2            142.     94.7      96.2      2240.         2104. 
 3     1 male      22              9              80.0     1             74.7    94.7      93.6       399.          354. 
 4     2 male      46             11              82.7     1             74.5    94.7      98.7       410.          586. 
 5     3 male      55              9              88.3     1             87.3    94.7      92.9        55.1          31.0
 6     4 male      33             10              88.3     1             84.3    94.7      96.1       109.          141. 
 7     5 male      50              9              89.6     1             85.8    94.7      93.0        79.9          51.7
 8     6 male      50             11              91.0     1             88.3    94.7      98.6        41.7         107. 
 9     7 male      37             10              92.4     1             89.6    94.7      96.0        25.8          41.2
10     8 male      28             10              95.1     1             83.4    94.7      96.2       127.          164. 
# ... with 68 more rows
```
…
