…
Als nächstes berechnen wir alle Konfidenzintervalle für die 100 Stichproben:

```R
confis <- samples %>% map_df(~ conf_function(.)) %>% 
  rownames_to_column(var = "id") %>% 
  mutate(
    includes_pop = conf_lower < mean(human_resources$monthly_income) &
      conf_upper > mean(human_resources$monthly_income)
  )
```

```
# A tibble: 100 x 4
   id    conf_upper conf_lower includes_pop
   <chr>      <dbl>      <dbl> <lgl>       
 1 1          7818.      4448. TRUE        
 2 2          8891.      5522. TRUE        
 3 3          8445.      5075. TRUE        
 4 4          8744.      5375. TRUE        
 5 5          9062.      5692. TRUE        
 6 6          8762.      5392. TRUE        
 7 7          9486.      6116. TRUE        
 8 8          7426.      4056. TRUE        
 9 9          8338.      4969. TRUE        
10 10         8131.      4762. TRUE        
# ... with 90 more rows
```
…
