…
In dieser Visualisierung wird beispielsweise deutlich, dass Manager und Research Directors in der Regel eine hohe Berufserfahrung haben und deutlich mehr verdienen als die Mitarbeiter in anderen Jobs.

## Liniendiagramme

Liniendiagramme eignen sich, um Beziehungen über die Zeit anzugeben. Beispielsweise können wir visualisieren, wie viele Mitarbeiter wie viele Jahre bereits gearbeitet haben:

```R
(working_years_count <- human_resources %>% count(total_working_years))
```

```
# A tibble: 40 x 2
   total_working_years     n
                 <dbl> <int>
 1                   0    11
 2                   1    81
 3                   2    31
 4                   3    42
 5                   4    63
 6                   5    88
 7                   6   125
 8                   7    81
 9                   8   103
10                   9    96
# ... with 30 more rows
```
…
Um mehrere Linien abhängig einer anderen Variable zu visualisieren verwenden wir die Aesthetic `color`:

```R
(working_years_count_gender <- human_resources %>% 
   count(total_working_years, gender))
```

```
# A tibble: 79 x 3
   total_working_years gender     n
                 <dbl> <chr>  <int>
 1                   0 Female     4
 2                   0 Male       7
 3                   1 Female    32
 4                   1 Male      49
 5                   2 Female    15
 6                   2 Male      16
 7                   3 Female    14
 8                   3 Male      28
 9                   4 Female    22
10                   4 Male      41
# ... with 69 more rows
```
…
Mit [mutate](https://dplyr.tidyverse.org/reference/mutate.html) können wir neue Variablen erstellen, wie können wir allerdings neue Variablen abhängig bestimmter Kriterien schreiben? Dies geht mit der Funktion [case_when](https://dplyr.tidyverse.org/reference/case_when.html). Stell dir vor, du möchtest die Variable `gender` ändern, indem du statt 0 weiblich schreibst und statt der 1 männlich schreibst:

```R
dataframe_cleaned %>% 
  mutate(
    gender = case_when(
      gender == 0 ~ "weiblich",
      gender == 1 ~ "männlich"
    )
  )
```

```
# A tibble: 1,470 x 4
      id education     gender   income
   <dbl> <chr>         <chr>     <dbl>
 1     1 College       männlich   5993
 2     2 Below College weiblich   5130
 3     3 College       weiblich   2090
 4     4 Master        männlich   2909
 5     5 Below College weiblich   3468
 6     6 College       weiblich   3068
 7     7 Bachelor      männlich   2670
 8     8 Below College weiblich   2693
 9     9 Bachelor      weiblich   9526
10    10 Bachelor      weiblich   5237
# ... with 1,460 more rows
```
…
Ein anderes Beispiel. Stell dir vor, du möchtest Mitarbeiter die mehr als 6000 Dollar brutto verdienen, den Wert "rich_people" zuordnen. Mitarbeiter, die weniger verdienen sollen den Wert "not_so_rich_people" bekommen. Hierfür legen wir eine neue Variable mit dem Namen `rich_people` an:

```R
dataframe_cleaned %>% 
  mutate(
    rich_people = case_when(
      income > 6000 ~ "rich_people",
      income < 6000 ~ "not_so_rich_people"
    )
  )
```

```
# A tibble: 1,470 x 5
      id education     gender income rich_people       
   <dbl> <chr>          <dbl>  <dbl> <chr>             
 1     1 College            1   5993 not_so_rich_people
 2     2 Below College      0   5130 not_so_rich_people
 3     3 College            0   2090 not_so_rich_people
 4     4 Master             1   2909 not_so_rich_people
 5     5 Below College      0   3468 not_so_rich_people
 6     6 College            0   3068 not_so_rich_people
 7     7 Bachelor           1   2670 not_so_rich_people
 8     8 Below College      0   2693 not_so_rich_people
 9     9 Bachelor           0   9526 rich_people       
10    10 Bachelor           0   5237 not_so_rich_people
# ... with 1,460 more rows
```
…
```
# A tibble: 1,470 x 5
      id education     gender   income rich_people       
   <dbl> <chr>         <chr>     <dbl> <chr>             
 1     1 College       männlich   5993 not_so_rich_people
 2     2 Below College weiblich   5130 not_so_rich_people
 3     3 College       weiblich   2090 not_so_rich_people
 4     4 Master        männlich   2909 not_so_rich_people
 5     5 Below College weiblich   3468 not_so_rich_people
 6     6 College       weiblich   3068 not_so_rich_people
 7     7 Bachelor      männlich   2670 not_so_rich_people
 8     8 Below College weiblich   2693 not_so_rich_people
 9     9 Bachelor      weiblich   9526 rich_people       
10    10 Bachelor      weiblich   5237 not_so_rich_people
# ... with 1,460 more rows
```

## Datenblätter zusammen führen

Mehrere Datenblätter zusammen zu führen, ist häufig eine äußerst schwierige Aufgabe, die schnell zu Fehlern führen kann, wenn man die Daten händisch zusammen führt. Einfacher geht es mit der Funktion [left_join](https://dplyr.tidyverse.org/reference/join.html). 

> Dieser Teil ist ein wenig schwierig. Solltest du an dieser Stelle die Inhalte noch nicht verstehen, kein Problem. Du wirst noch ein paar Wochen Zeit haben, bis du diese Befehle anwenden musst. Wenn du an dieser Stelle die zu Grunde liegende Idee verstehst, hast du schon einen großen Schritt gemacht.

Wir haben nun zwei Datenblätter: 

```R
dataframe_cleaned
```

```
# A tibble: 1,470 x 4
      id education     gender income
   <dbl> <chr>          <dbl>  <dbl>
 1     1 College            1   5993
 2     2 Below College      0   5130
 3     3 College            0   2090
 4     4 Master             1   2909
 5     5 Below College      0   3468
 6     6 College            0   3068
 7     7 Bachelor           1   2670
 8     8 Below College      0   2693
 9     9 Bachelor           0   9526
10    10 Bachelor           0   5237
# ... with 1,460 more rows
```

Und:


```R
satisfaction
```

```
# A tibble: 1,470 x 2
      id job_satisfaction
   <dbl> <chr>           
 1     1 Very High       
 2     2 Medium          
 3     3 High            
 4     4 High            
 5     5 Medium          
 6     6 Very High       
 7     7 Low             
 8     8 High            
 9     9 High            
10    10 High            
# ... with 1,460 more rows
```
…
Zunächst prüfen wir, wie viele Reihen der erste Datensatz hat:

```R
nrow(dataframe_cleaned) # 1470
``` 

Fügen wir als nächstes die Datensätze zusammen:

```R
(dataframe_joined <- dataframe_cleaned %>% 
  left_join(satisfaction, by = "id"))
```

```
# A tibble: 1,470 x 5
      id education     gender income job_satisfaction
   <dbl> <chr>          <dbl>  <dbl> <chr>           
 1     1 College            1   5993 Very High       
 2     2 Below College      0   5130 Medium          
 3     3 College            0   2090 High            
 4     4 Master             1   2909 High            
 5     5 Below College      0   3468 Medium          
 6     6 College            0   3068 Very High       
 7     7 Bachelor           1   2670 Low             
 8     8 Below College      0   2693 High            
 9     9 Bachelor           0   9526 High            
10    10 Bachelor           0   5237 High            
# ... with 1,460 more rows
```
…
