…
Wir können die Gleichung umstellen und zeigen, dass der Fehler durch ei = Ymath − 10.42 berechnet werden kann. Speichern wir diesen Fehler in einer eigenen Variable:

(residual_dataframe <- student_data %>% 
  rownames_to_column(var = "id") %>% 
  select(id, G3, studytime, failures) %>% 
  mutate(
    e_y_math = G3 - mean(G3)
  ))

# A tibble: 395 x 5
   id       G3 studytime failures e_y_math
   <chr> <dbl>     <dbl>    <dbl>    <dbl>
 1 1         6         2        0   -4.42 
 2 2         6         2        0   -4.42 
 3 3        10         2        3   -0.415
 4 4        15         3        0    4.58 
 5 5        10         2        0   -0.415
 6 6        15         2        0    4.58 
 7 7        11         2        0    0.585
 8 8         6         2        0   -4.42 
 9 9        19         2        0    8.58 
10 10       15         2        0    4.58 
# ... with 385 more rows
…
$$
\begin{aligned}
Y_{failures} &= b_0 + e_i\\
Y_{failures} &= 0.33 + e_i
\end{aligned}
$$

Erneut erhalten wir für die Fehler ei = Yfailures − 0.33 und können diese Daten in unseren Datensatz einfügen:

(residual_dataframe <- residual_dataframe %>% 
  mutate(
    e_y_failures = failures - mean(failures)
  ))

# A tibble: 395 x 6
   id       G3 studytime failures e_y_math e_y_failures
   <chr> <dbl>     <dbl>    <dbl>    <dbl>        <dbl>
 1 1         6         2        0   -4.42        -0.334
 2 2         6         2        0   -4.42        -0.334
 3 3        10         2        3   -0.415        2.67 
 4 4        15         3        0    4.58        -0.334
 5 5        10         2        0   -0.415       -0.334
 6 6        15         2        0    4.58        -0.334
 7 7        11         2        0    0.585       -0.334
 8 8         6         2        0   -4.42        -0.334
 9 9        19         2        0    8.58        -0.334
10 10       15         2        0    4.58        -0.334
# ... with 385 more rows
…
Diese Modell können wir wie folgt interpretieren: Schüler, die öfters als der Durchschnitt durch einen Kurs fliegen, sind ebenso schlechter in der Mathematikleistung als der Durschschnitt. Wäre b1 positiv, würden wir davon ausgehen, dass Schüler die öfter als der Durschschnitt durch einen Kurs fliegen, besser in der Mathematikleistung sind als der Durchschnitt.

Bei unserem Schüler mit der ID zwei würden wir daher davon ausgehen, dass er 0.07 Punkte besser in der Mathematiknote als der Durchschnitt ist, da er im Schnitt weniger durch die Kurse fällt als seine Klassenkameraden:

ey − math =  − 2.22 * ( − 0.334) = 0.07

Erneut können wir die Fehler dieses Modells berechnen, indem wir die geschätze Abweichung der Mathematiknote vom Mittelwert von der tatsächlichen Abweichung vom Mittelwert berechnen:

(residual_dataframe <- residual_dataframe %>% 
  mutate(
    e_math_failures = e_y_math - (-2.22 * e_y_failures)
  ))

# A tibble: 395 x 7
   id       G3 studytime failures e_y_math e_y_failures e_math_failures
   <chr> <dbl>     <dbl>    <dbl>    <dbl>        <dbl>           <dbl>
 1 1         6         2        0   -4.42        -0.334          -4.49 
 2 2         6         2        0   -4.42        -0.334          -4.49 
 3 3        10         2        3   -0.415        2.67            0.171
 4 4        15         3        0    4.58        -0.334           4.51 
 5 5        10         2        0   -0.415       -0.334          -0.489
 6 6        15         2        0    4.58        -0.334           4.51 
 7 7        11         2        0    0.585       -0.334           0.511
 8 8         6         2        0   -4.42        -0.334          -4.49 
 9 9        19         2        0    8.58        -0.334           8.51 
10 10       15         2        0    4.58        -0.334           4.51 
# ... with 385 more rows
…
Ystudytime = b0 + b1 * Xi − failures + e

Hieraus ergibt sich:

Ŷstudytime = 2.1009 − 0.1959 * Xi − failures

Dieses Modell sagt nun voraus, dass mit jedem Mal, das eine Person durchfällt, die Lernzeit um 0.19 Punkte absinkt. Unsere Person mit der ID beispielsweise hat eine Lernzeit von 2, wir würden allerdings annehmen, dass diese 2.1 − 0.19 * 0 = 2.1 beträgt. Der Fehler beläuft sich daher auf 2.0 − 2.1 =  − 0.1. Berechnen wir diese Fehler für alle SuS:

(residual_dataframe <- residual_dataframe %>% 
  mutate(
    e_study_failures = studytime - (2.1009 - 0.1959 * failures)
  ))  

# A tibble: 395 x 8
   id       G3 studytime failures e_y_math e_y_failures e_math_failures e_study_failures
   <chr> <dbl>     <dbl>    <dbl>    <dbl>        <dbl>           <dbl>            <dbl>
 1 1         6         2        0   -4.42        -0.334          -5.16            -0.101
 2 2         6         2        0   -4.42        -0.334          -5.16            -0.101
 3 3        10         2        3   -0.415        2.67            5.50             0.487
 4 4        15         3        0    4.58        -0.334           3.84             0.899
 5 5        10         2        0   -0.415       -0.334          -1.16            -0.101
 6 6        15         2        0    4.58        -0.334           3.84            -0.101
 7 7        11         2        0    0.585       -0.334          -0.157           -0.101
 8 8         6         2        0   -4.42        -0.334          -5.16            -0.101
 9 9        19         2        0    8.58        -0.334           7.84            -0.101
10 10       15         2        0    4.58        -0.334           3.84            -0.101
# ... with 385 more rows
…
